{
  "description": "Alpine Linux x86_64 3.12.1",
  "provisioners": [
    {
      "type": "file",
      "source": "./scripts/alpine/3.12.1/copy_authorized_keys_file.start",
      "destination": "/etc/local.d/copy_authorized_keys_file.start"
    },
    {
      "type": "shell",
      "scripts": [
        "scripts/alpine/3.12.1/alpine.sh",
        "scripts/common/igrida.sh",
        "scripts/common/grid5000.sh",
        "scripts/common/minimize.sh"
      ],
      "environment_vars": [
        "context={{user `context`}}"
      ]
    }
  ],
  "builders": [
    {
      "type": "qemu",
      "headless": "{{user `headless`}}",
      "accelerator": "{{user `qemu_accelerator`}}",
      "vm_name": "{{ user `template` }}.qcow2",
      "http_directory": "{{user `http_directory`}}",
      "disk_size": "{{user `disk_size`}}",
      "iso_url": "{{user `iso_url`}}",
      "iso_checksum": "{{user `iso_checksum`}}",
      "iso_checksum_type": "{{user `iso_checksum_type`}}",
      "ssh_username": "{{user `ssh_username`}}",
      "ssh_password": "{{user `ssh_password`}}",
      "shutdown_command": "{{user `shutdown_command`}}",
      "boot_wait": "15s",
      "ssh_wait_timeout": "360s",
      "output_directory": "packer-{{user `template`}}-qemu",
      "boot_command": [
        "root<enter><wait>",
        "ifconfig eth0 up && udhcpc -i eth0<enter><wait5>",
        "wget http://{{ .HTTPIP }}:{{ .HTTPPort }}/answerfile-qemu<enter><wait>",
        "setup-alpine -f answerfile-qemu<enter><wait5>",
        "{{user `ssh_password`}}<enter><wait>",
        "{{user `ssh_password`}}<enter><wait>",
        "<wait10><wait10><wait10>",
        "y<enter>",
        "<wait10>",
        "rc-update --quiet add sshd default<enter><wait>",
        "mount /dev/vda2 /mnt<enter>",
        "echo 'PermitRootLogin yes' >> /mnt/etc/ssh/sshd_config<enter>",
        "umount /mnt<enter>",
        "reboot<enter>"
      ]
    }
  ],
  "variables": {
    "vm_basename": "alpine-3.12.1",
    "template": "alpine-3.12.1-x86_64",
    "iso_checksum": "bb87644518e85972582e25b5c872854f28de615e04cb58c1cdaadc46d3ae60ba",
    "iso_checksum_type": "sha256",
    "iso_url": "http://dl-cdn.alpinelinux.org/alpine/v3.12/releases/x86_64/alpine-virt-3.12.1-x86_64.iso",
    "http_directory": "http/alpine-3.12.1/",
    "disk_size": "102400",
    "ssh_username": "root",
    "ssh_password": "packer",
    "shutdown_command": "/sbin/poweroff",
    "context": "{{env `GVIRT_CONTEXT`}}",
    "headless": "true",
    "qemu_accelerator": "kvm"
  }
}

