{
  "builders": [
    {
      "accelerator": "{{user `qemu_accelerator`}}",
      "boot_command": [
        "root<enter><wait>",
        "ifconfig eth0 up \u0026\u0026 udhcpc -i eth0<enter><wait>",
        "wget http://{{ .HTTPIP }}:{{ .HTTPPort }}/answerfile-qemu<enter><wait>",
        "setup-alpine -f answerfile-qemu<enter><wait5>",
        "{{user `ssh_password`}}<enter><wait>",
        "{{user `ssh_password`}}<enter><wait>",
        "<wait10><wait10><wait10>",
        "y<enter>",
        "<wait10>",
        "rc-update --quiet add sshd default<enter><wait>",
        "mount /dev/vda2 /mnt<enter>",
        "echo 'PermitRootLogin yes' >> /mnt/etc/ssh/sshd_config<enter>",
        "umount /mnt<enter>",
        "reboot<enter>"
      ],
      "boot_wait": "15s",
      "disk_size": "{{user `disk_size`}}",
      "headless": "{{user `headless`}}",
      "http_directory": "{{user `http_directory`}}",
      "iso_checksum": "{{user `iso_checksum_type`}}:{{user `iso_checksum`}}",
      "iso_url": "{{user `iso_url`}}",
      "output_directory": "packer-{{user `template`}}-qemu",
      "shutdown_command": "{{user `shutdown_command`}}",
      "ssh_password": "{{user `ssh_password`}}",
      "ssh_timeout": "360s",
      "ssh_username": "{{user `ssh_username`}}",
      "type": "qemu",
      "vm_name": "{{ user `template` }}.qcow2"
    }
  ],
  "description": "Alpine Linux x86_64 3.11.3 with docker",
  "provisioners": [
    {
      "destination": "/etc/local.d/copy_authorized_keys_file.start",
      "source": "./scripts/alpine/3.11.3/copy_authorized_keys_file.start",
      "type": "file"
    },
    {
      "environment_vars": [
        "context={{user `context`}}"
      ],
      "scripts": [
        "scripts/alpine/3.11.3/alpine.sh",
        "scripts/alpine/3.11.3/docker.sh",
        "scripts/common/configure_docker.sh",
        "scripts/common/igrida.sh",
        "scripts/common/grid5000.sh",
        "scripts/common/minimize.sh"
      ],
      "type": "shell"
    }
  ],
  "variables": {
    "context": "{{env `GVIRT_CONTEXT`}}",
    "disk_size": "102400",
    "headless": "true",
    "http_directory": "http/alpine-3.11.3/",
    "iso_checksum": "bf82e95b3fa0a4e35391202b60631bb687c935688bc09d4452159d92bf3d0172",
    "iso_checksum_type": "sha256",
    "iso_url": "http://dl-cdn.alpinelinux.org/alpine/v3.11/releases/x86_64/alpine-virt-3.11.3-x86_64.iso",
    "qemu_accelerator": "kvm",
    "shutdown_command": "/sbin/poweroff",
    "ssh_password": "packer",
    "ssh_username": "root",
    "template": "alpine-3.11.3-docker-x86_64",
    "vm_basename": "alpine-3.11.3-docker"
  }
}